<?xml version="1.0" encoding="utf-8"?>
<!-- Generator: Adobe Illustrator 16.0.0, SVG Export Plug-In . SVG Version: 6.00 Build 0)  -->
<!DOCTYPE svg PUBLIC "-//W3C//DTD SVG 1.1//EN" "http://www.w3.org/Graphics/SVG/1.1/DTD/svg11.dtd">
<svg version="1.1" id="Layer_1" xmlns="http://www.w3.org/2000/svg" xmlns:xlink="http://www.w3.org/1999/xlink" x="0px" y="0px"
	 width="256px" height="64px" viewBox="0 0 256 64" enable-background="new 0 0 256 64" xml:space="preserve">
<g>
	<g>
		<path fill="#79735A" d="M32.78,20.24c0.764,0,1.382-0.619,1.382-1.382c0-0.764-0.619-1.383-1.382-1.383
			c-0.763,0-1.383,0.619-1.383,1.383C31.397,19.621,32.017,20.24,32.78,20.24"/>
		<path fill="#989258" d="M36.456,17.583c0.882,0,1.597-0.715,1.597-1.596c0-0.883-0.714-1.596-1.597-1.596
			s-1.597,0.713-1.597,1.596C34.859,16.868,35.574,17.583,36.456,17.583"/>
		<path fill="#FFFFFF" d="M43.898,41.205l-6.271-10.357v-5.784h0.151c0.908,0,1.643-0.736,1.643-1.644
			c0-0.908-0.735-1.643-1.643-1.643H30.47c-0.908,0-1.643,0.735-1.643,1.643c0,0.908,0.735,1.644,1.643,1.644h0.151v5.784
			L24.35,41.205c-1.099,2.206,0.508,4.798,2.971,4.798h13.604C43.393,46.003,44.996,43.412,43.898,41.205 M38.53,42.884h-8.822
			c-0.987,0-1.568-1.106-1.007-1.919l4.512-6.529c0.494-0.713,1.552-0.703,2.029,0.021l4.31,6.53
			C40.088,41.8,39.503,42.884,38.53,42.884"/>
	</g>
	<g>
		<path fill="#FFFFFF" d="M61.296,40.939l6.472-13.917c0.062-0.124,0.207-0.226,0.354-0.226h0.206c0.145,0,0.289,0.103,0.351,0.226
			l6.474,13.917c0.123,0.27-0.042,0.537-0.353,0.537h-2.294c-0.373,0-0.539-0.123-0.724-0.518l-0.745-1.634h-5.625l-0.745,1.655
			c-0.102,0.248-0.33,0.496-0.745,0.496h-2.273C61.337,41.479,61.173,41.209,61.296,40.939 M69.795,36.516l-1.571-3.412h-0.021
			l-1.55,3.412H69.795z"/>
		<path fill="#FFFFFF" d="M91.404,26.797c2.068,0,3.599,0.64,5.005,1.923c0.187,0.164,0.187,0.414,0.021,0.578l-1.613,1.675
			c-0.145,0.146-0.371,0.146-0.518,0c-0.764-0.682-1.777-1.054-2.791-1.054c-2.336,0-4.052,1.942-4.052,4.261
			c0,2.293,1.737,4.196,4.071,4.196c0.974,0,2.027-0.351,2.771-0.991c0.146-0.124,0.414-0.124,0.539,0.02l1.612,1.72
			c0.146,0.146,0.123,0.412-0.021,0.558c-1.406,1.363-3.186,2.006-5.025,2.006c-4.136,0-7.465-3.289-7.465-7.426
			C83.939,30.124,87.269,26.797,91.404,26.797"/>
		<path fill="#FFFFFF" d="M108.609,27.128c0.021-0.187,0.207-0.331,0.371-0.331h0.334c0.103,0,0.287,0.083,0.351,0.206l4.797,8.933
			h0.042l4.798-8.933c0.062-0.124,0.247-0.206,0.351-0.206h0.332c0.166,0,0.35,0.143,0.369,0.331l2.338,13.896
			c0.041,0.27-0.145,0.455-0.393,0.455h-2.441c-0.186,0-0.369-0.166-0.392-0.33l-0.932-6.391h-0.041l-3.474,6.7
			c-0.063,0.123-0.25,0.228-0.354,0.228h-0.37c-0.126,0-0.29-0.104-0.354-0.228l-3.491-6.7h-0.043l-0.909,6.391
			c-0.021,0.164-0.186,0.33-0.395,0.33h-2.439c-0.248,0-0.434-0.187-0.393-0.455L108.609,27.128z"/>
		<path fill="#FFFFFF" d="M133.609,27.396c0-0.207,0.166-0.393,0.395-0.393h8.561c0.228,0,0.394,0.186,0.394,0.393v2.253
			c0,0.207-0.166,0.395-0.394,0.395h-5.729v2.563h4.714c0.209,0,0.396,0.185,0.396,0.394v2.253c0,0.229-0.187,0.395-0.396,0.395
			h-4.714v2.789h5.729c0.228,0,0.394,0.188,0.394,0.395v2.255c0,0.206-0.166,0.392-0.394,0.392h-8.561
			c-0.229,0-0.395-0.186-0.395-0.392V27.396L133.609,27.396z"/>
	</g>
</g>
</svg>
